{
  "version": "1.0.0-*",
  "description": "DivergentCapital.ApplicationProcessor Console Application",
  "authors": [ "vinita.s" ],
  "tags": [ "" ],
  "projectUrl": "",
  "licenseUrl": "",
  "frameworks": {
    "dnx451": {
    }
  },
  "dependencies": {
    "DivergentCapital.ApplicationProcessor.Abstractions": "",
    "LendFoundry.Clients.DecisionEngine": "2.0.0-*",
    "LendFoundry.Configuration.Client": "1.0.7-*",
    "LendFoundry.EventHub.Abstractions": "2.0.0-11019",
    "LendFoundry.EventHub.Client": "2.0.0-11019",
    "LendFoundry.Foundation.Lookup.Abstractions": "1.0.0-*",
    "LendFoundry.Foundation.Lookup.Client": "1.0.0-11005",
    "LendFoundry.Notifications.Abstractions": "1.0.1-*",
    "LendFoundry.Notifications.Client": "1.0.1-*",
    "LendFoundry.OfferEngine.Abstractions": "1.0.0-*",
    "LendFoundry.OfferEngine.Client": "1.0.0-*",
    "LendFoundry.Security.Identity.Abstractions": "1.0.0-11040",
    "LendFoundry.Security.Identity.Client": "1.0.0-11040",
    "LendFoundry.Security.Tokens": "1.0.7-*",
    "LendFoundry.Tenant.Abstractions": "1.0.0-*",
    "LendFoundry.Tenant.Client": "1.0.9-*",
    "LendFoundry.Security.Client": "1.0.0-*",
    "LendFoundry.Foundation.Services": "1.0.9-*",
    "Microsoft.Framework.DependencyInjection.Abstractions": "1.0.0-beta8",
    "LendFoundry.DataAttributes.Abstractions": "1.0.0-*",
    "CreditExchange.Application.Document.Abstractions": "1.0.0-dev-*",
    "CreditExchange.Consent.Abstractions": "1.0.0-dev-*",
    "LendFoundry.Syndication.Experian": "1.0.0-*",
    "CreditExchange.VerificationEngine.Abstractions": "1.0.0-dev-*",
    "LendFoundry.Syndication.LFDocuSign": "1.0.0-22",
    "LendFoundry.Business.OfferEngine.Abstractions": "1.0.0-5",
    "LendFoundry.ProductRule.Abstractions": "1.0.0-7",
    "LendFoundry.ProductRule.Client": "1.0.0-7"
  }
}